{
    "2103": [
        "fuel_system_status_System1",
        2,
        "A"
    ],
    "2104": [
        "engine_load",
        1,
        "A"
    ],
    "2105": [
        "engine_coolant_temp",
        1,
        "A"
    ],
    "2106": [
        "short_term_fuel_trim",
        1,
        "A"
    ],
    "2107": [
        "long_term_fuel_percent_trim_Bank_1",
        1,
        "A"
    ],
    "210C": [
        "rpm",
        2,
        "A"
    ],
    "210D": [
        "speed",
        1,
        "A"
    ],
    "210F": [
        "intake_air_temp",
        1,
        "A"
    ],
    "2110": [
        "MAF_air_flow_rate",
        2,
        "A"
    ],
    "2113": [
        "oxygen_sensors_present",
        1,
        "A"
    ],
    "2114": [
        "oxygen_sensors_present_PID_1D",
        2,
        "A"
    ],
    "211C": [
        "OBD_requirement",
        1,
        "A"
    ],
    "211F": [
        "run_time_since_engine_start",
        2,
        "A"
    ],
    "2121": [
        "distance_traveled_with_MIF_on",
        2,
        "A"
    ],
    "212F": [
        "fuel_level_input",
        1,
        "A"
    ],
    "2133": [
        "barometric_pressure",
        1,
        "A"
    ],
    "2142": [
        "control_module_voltage",
        2,
        "A/1000"
    ],
    "2146": [
        "ambient_air_temp",
        1,
        "A"
    ],
    "210B":[
        "intake_mainfold_absolute_pressure",
        1,
        "A"
    ]
}