{
  "d": {
    "RMUId": 2030991,
    "CellX": 0,
    "CellY": 0,
    "CellDateTime": "2017-05-04T18:07:50.870Z",
    "GPSX": 62222110,
    "GPSY": 805451,
    "GPSDateTime": "2017-05-04T10:05:59.870Z",
    "Speed": 8,
    "Direction": 58,
    "NumOfSat": 7,
    "LocQuality": -1,
    "Data": "f1b2406035d0009a",
    "Address": "",
    "EngineOn": 1,
    "ExtInputA": 1,
    "ExtInputB": 1,
    "ExtInputC": 1,
    "ExtInputD": 0,
    "ExtInputE": 0,
    "ExtInputF": 0,
    "VersionNum": "HW<52> SW<36.16>",
    "IMSI": "0                   ",
    "IP": "               ",
    "BytesTotal": 16,
    "TXIndex": -1,
    "MainArea": -1,
    "MainAnt": -1,
    "MainDBMQuality": -1,
    "InputVoltage": 13408,
    "BackBatVoltage": 4028,
    "GPSPDOP": -1,
    "GPSHDOP": -1,
    "GPSVDOP": -1,
    "GPSHEIGHT": 29,
    "NetworkTypeId": 4,
    "UnitMsgId": 57032,
    "InsertDate": "2017-05-04T18:07:50.673Z",
    "UTCTime": "2017-05-04T10:07:47.000Z",
    "DriverId": "0",
    "TxReasonId": 44,
    "AlertReason": 0,
    "Hibernation": 0,
    "HRNetwork": 0,
    "UnitMode": null,
    "MileCounter": 2018,
    "GPSMode1": 99,
    "GPSMode2": 99,
    "OutputA": 0,
    "OutputB": 0,
    "OutputC": 0,
    "OutputD": 0,
    "OptionalInput": 106628855,
    "GPSCommStatus": 1,
    "RawData": "4D434750008FFD1E0008100B34246400CD002C0063C000001772F4A6B6E20700000000000000852200000007B0CAC90A32C02300540B0000E3000000F7032F070A0405E107E4",
    "PLMN": 52503,
    "TotalIO": "98784297059",
    "IO_Byte1_bit2": 0,
    "IO_Byte1_bit3": 0,
    "IO_Byte1_bit4": 0,
    "IO_Byte2_bit0": 0,
    "IO_Byte2_bit1": 0,
    "IO_Byte2_bit3": 0,
    "IO_Byte2_bit4": 0,
    "IO_Byte2_bit5": 0,
    "IO_Byte2_bit6": 1,
    "IO_Byte2_bit7": 1,
    "SN": 11,
    "MessageType": null,
    "UnitData": null,
    "MsgProtocol": 0,
    "TripId": null,
    "ManeuverID": null,
    "ManeuverUsage": null,
    "AccidentBuffer": null,
    "ItemId": "19108",
    "CorrelatorAppId": 0,
    "trip_id": "2030991-2017-4-4",
    "speed": 8,
    "lat": 1.3424183333333333,
    "lng": 103.70351666666667,
    "timestamp": "2017-05-04T10:05:59.870Z",
    "props": {
      "engineRPM": 2500,
      "engineOilTemp": 150,
      "engineTemp": 90,
      "fuelLevel": 75,
      "InputVoltage": 13.408,
      "BackBatVoltage": 4.028,
      "CellDateTime": "2017-05-04T18:07:50.870Z",
      "EngineOnTxt": "Engine On"
    }
  }
}