{
    "Configurator": {
        "frequency": "30000"
    },
    "ThroughputCalculator": {
        "threshold": "5000"
    },
    "pictorPS25":{
         "port": "31999"
    },
    "concoxPT06": {
        "port": "32999"
    },
    "transight":{
        "port": "33999"
    },
    "adas": {
        "port": "34999"
    },
    "IoTA4": {
        "port": "35999"
    },
    "unisemAIS": {
        "port": "35999"
    },
    "IoTA4V2": {
        "port": "36999"
    },
    "longStandByTrackerG07": {
        "port": "37999"
    },
    "cariqChip": {
        "port": "38999"
    },
    "teltonikaFM1100": {
        "port": "39999"
    },
    "secureNetB20": {
        "port": "40999"
    },
    "pointerTLS1_2": {
        "port": "6050"
    },
    "pointerTLS1_1": {
        "port": "7060"
    },
    "pointerTCP": {
        "port": "7010"
    },
    "autocopAssetTracker": {
        "port": "42999"
    },
    "unisemNonAIS": {
        "port": "43999"
    },
    "varroc": {
        "port": "44999"
    },
    "longStandByTracker": {
        "port": "45999"
    },
    "autocopAIS": {
        "port": "46999"
    },
    "thinkraceFota": {
        "port": "47999"
    },
    "thinkraceLoadTest": {
        "port": "48999"
    },
    "thinkrace": {
        "port": "49999"
    },
    "sinocastel213LE": {
        "port": "50999"
    },
    "vt33": {
        "port": "51999"
    },
    "napino": {
        "port": "52999"
    },
    "hs600g": {
        "port": "53999"
    },
    "autocop": {
        "port": "54999"
    },
    "iwave": {
        "port": "55999"
    },
    "autocop2000": {
        "port": "56999"
    },
    "nyitech": {
        "port": "57999"
    },
    "concoxQ2": {
        "port": "58999"
    },
    "sinocastelSAT802": {
        "port": "59999"
    },
    "snGTC600": {
        "port": "60999"
    },
    "sinocastel213GD": {
        "port": "61999"
    },
    "itriangle": {
        "port": "62999"
    },
    "cariqVirtual": {
        "port": "63999"
    },
    "itriangleAIS": {
        "port": "64999"
    },
    "DAS": {
        "DNS": "gearbox-dev.mycariq.com",
        "port": "8080"
    },
    "API": {
        "DNS": "dev-ecu.mycariq.com",
        "port": "443",
        "username": "babelfish",
        "password": "ef9f744a65f5c73f4f1335a632717b33"
    },
    "mongo": {
        "hotDBURL": "mongodb://ciq-dev-srv01/current",
        "coldDBURL": "mongodb://ciq-dev-srv01/retainer",
        "topic": "mongoDocument",
        "batchSize": 1
    },
    "flespi": {
        "token": "Vztx4bEDqAtiAzHDy6eZS0tJ8mbaTSCEfTZ9UtA8RThhjOJFILurBNYxYZxFF09I",
        "channels": "7886"
    },
    "kafka": {
        "host": "10.7.0.4:9092,10.7.0.5:9092",
        "isEnabled": true
    },
    "mqtt": {
        "url": "mqtts://babelfish.mycariq.com:8883",
        "caFileName":"driven_server.pem"
    },
    "rabbitmq": {
        "url": "amqp://localhost"
    },
    "heatsink":{
        "isEnabled":true
    },
    "redis": {
        "host": "10.7.0.4",
        "port": 6379,
        "password": "QwdkfeAdhiee"
    }
}