{
    "00": "normal",
    "01": "SOS",
    "02": "Power cut alarm",
    "03": "Vibration alarm",
    "04": "Enter fence alarm",
    "05": "Exit fence alarm",
    "06": "Over speed alarm",
    "09": "Moving alarm",
    "0A": "Enter GPS dead zone alarm",
    "0B": "Exit GPS dead zone alarm",
    "0C": "Power on alarm",
    "0D": "GPS First fix notice",
    "0E": "External Low battery alarm",
    "0F": "External Low battery protection",
    "10": "SIM change notice",
    "11": "Power off alarm",
    "12": "Airplane mode alarm",
    "13": "Disassemble alarm",
    "14": "Door alarm",
    "15": "Shutdown alarm due to low power",
    "16": "Sound alarm",
    "20": "Sleep mode alarm",
    "29": "Harsh acceletation alarm",
    "30": "Harsh braking alarm",
    "2A": "Sharp Left Turn Alarm",
    "2B": "Sharp Right Turn Alarm",
    "2C": "Sharp Crash Alarm",
    "32": "Pull alarm",
    "3E": "Press the button to upload alarm message to the platform",
    "23": "fall alarm",
    "FE": "ACC On alarm",
    "FF": "ACC Off alarm"
}