{
    "03":"pullOutReminder",
    "04":"lowBatteryVoltage",
    "05":"powerOffAlarm",
    "06":"powerOnAlarm",
    "07":"ignitionOn",
    "08":"ignitionOff",
    "09":"gosBoxOpened",
    "10":"sosOn",
    "11":"sosOff",
    "12":"overTheAirParameterChange",
    "13":"rapidDeceleration",
    "14":"suddenSpeededUp",
    "15":"suddenLaneChange",
    "16":"tempered",
    "17":"gpsBoxClosed",
    "18":"moving",
    "19":"vehicleStop",
    "20":"idling",
    "21":"overSpeed",
    "22":"dormancyVoltage",
    "23":"parking",
    "24":"towing"
 }